<?xml version="1.0" encoding="UTF-8"?>
<session version="1.0">
<refactoring comment="Delete resource &apos;MapViewActivity&apos;" deleteContents="false" description="Delete resource &apos;MapViewActivity&apos;" element1="/MapViewActivity" flags="7" id="org.eclipse.ltk.core.refactoring.delete.resources" resources="1" stamp="1433269863539"/>
</session>